
{
    "startingMondayMonth":"1",
    "startingMondayDay":"23",
    "endingFridayMonth":"5",
    "endingFridayDay":"19",
    "holidays":[
        {
            "month":"9",
            "day":"17",
            "title":"SNOW DAY",
            "link":" "
        },
        {
            "month":"13",
            "day":"17",
            "title":"Spring Break",
            "link":" "
        }
    ],
    "lectures":[
        {
            "month":"14",
            "day":"17",
            "title":"Lecture 3",
            "topic":"Event Programming",
            "link":" "
        }
    ],
    "references":[
    ],
    "recitations":[
    ],
    "hws":[
    ],
}