
{
    "startingMondayMonth":"1",
    "startingMondayDay":"23",
    "endingFridayMonth":"5",
    "endingFridayDay":"19",
    "holidays":[
        {
            "month":"2",
            "day":"9",
            "title":"SNOW DAY",
            "link":" "
        },
        {
            "month":"3",
            "day":"13",
            "title":"Spring Break",
            "link":" "
        }
    ],
    "lectures":[
        {
            "month":"2",
            "day":"14",
            "title":"Lecture 3",
            "topic":"Event Programming",
            "link":" "
        }
    ],
    "references":[
    ],
    "recitations":[
    ],
    "hws":[
        {
            "month":"2",
            "day":"17",
            "title":"HW 1",
            "topic":"due @ 11:59pm",
            "link":"./hw/HW1.html",
            "time":"12:01am",
            "criteria":"none"
        }
    ]
}
